module star-wars

go 1.20

require (
	github.com/99designs/gqlgen v0.17.39
	github.com/vektah/gqlparser/v2 v2.5.10
)

require (
	github.com/agnivade/levenshtein v1.1.1 // indirect
	github.com/cpuguy83/go-md2man/v2 v2.0.2 // indirect
	github.com/google/uuid v1.3.0 // indirect
	github.com/gorilla/websocket v1.5.0 // indirect
	github.com/hashicorp/golang-lru/v2 v2.0.3 // indirect
	github.com/mitchellh/mapstructure v1.5.0 // indirect
	github.com/russross/blackfriday/v2 v2.1.0 // indirect
	github.com/sosodev/duration v1.1.0 // indirect
	github.com/urfave/cli/v2 v2.25.5 // indirect
	github.com/xrash/smetrics v0.0.0-20201216005158-039620a65673 // indirect
	golang.org/x/mod v0.10.0 // indirect
	golang.org/x/sys v0.8.0 // indirect
	golang.org/x/text v0.9.0 // indirect
	golang.org/x/tools v0.9.3 // indirect
	gopkg.in/yaml.v3 v3.0.1 // indirect
)
